test_run_dir/Processing_Element_PE_should_propagate_activations_correctly/PE.vcd
$date
2026-01-20T21:42+0000
$end
$version
0.2
$end
$comment

$end
$timescale 1ns  $end
$scope module PE $end
 $var wire 16 ! io_in_psum $end
 $var wire 8 " out_act_reg $end
 $var wire 16 # io_out_psum $end
 $var wire 16 $ out_psum_reg $end
 $var wire 1 % io_en_weight_capture $end
 $var wire 1 & clock $end
 $var wire 8 ' io_in_act $end
 $var wire 8 ( weight_reg $end
 $var wire 1 ) reset $end
 $var wire 1 * io_en_weight_pass $end
 $var wire 8 + io_out_act $end
$upscope $end
$enddefinitions $end
$dumpvars
0%
b0000000000000000 $
b00000000 +
b00000000 (
0)
0&
0*
b0000000000000000 !
b00000000 "
b0000000000000000 #
b00000000 '
$end
#0
1)
#1
1&
#6
0&
0)
#11
1&
#16
b0000000000000001 !
1%
0&
1*
#21
1&
b0000000000000001 #
b0000000000000001 $
b00000001 (
#26
0%
0&
0*
b01100011 '
#31
b01100011 "
1&
b0000000001100100 #
b0000000001100100 $
b01100011 +
#36
0&
b00101010 '
#41
b00101010 "
1&
b0000000000101011 #
b0000000000101011 $
b00101010 +
#46
b0000000000000000 !
0&
b00000000 '
