test_run_dir/Dual_Weight_FIFO_Staggered_should_verify_1cycle_skew_between_col0_and_col1/DualWeightFIFO.vcd
$date
2026-01-06T22:17+0000
$end
$version
0.2
$end
$comment

$end
$timescale 1ns  $end
$scope module DualWeightFIFO $end
 $var wire 8 ! queue1_3 $end
 $var wire 8 " col1_out_reg $end
 $var wire 1 # io_push_col1 $end
 $var wire 8 $ io_data_in $end
 $var wire 2 % rd_ptr1 $end
 $var wire 8 & queue1_2 $end
 $var wire 1 ' io_pop $end
 $var wire 8 ( queue0_3 $end
 $var wire 2 ) wr_ptr1 $end
 $var wire 8 * io_col1_out $end
 $var wire 8 + queue0_0 $end
 $var wire 2 , wr_ptr0 $end
 $var wire 2 - rd_ptr0 $end
 $var wire 1 . io_push_col0 $end
 $var wire 8 / queue1_1 $end
 $var wire 1 0 clock $end
 $var wire 8 1 io_col1_raw $end
 $var wire 8 2 queue0_2 $end
 $var wire 1 3 reset $end
 $var wire 8 4 queue1_0 $end
 $var wire 8 5 queue0_1 $end
 $var wire 8 6 io_col0_out $end
$upscope $end
$enddefinitions $end
$dumpvars
b00000000 (
b00000000 /
b00000000 !
0'
0.
b00000000 "
b00000000 1
b00 )
b00000000 2
b00000000 *
00
b00000000 $
b00000000 +
0#
b00 %
b00000000 4
b00 ,
b00000000 &
b00000000 5
b00 -
03
b00000000 6
$end
#0
13
#1
10
#6
03
00
#11
10
#16
00
1.
b01100100 $
#21
10
b01100100 6
b01100100 +
b01 ,
#26
00
b11001000 $
#31
10
b11001000 5
b10 ,
#36
00
0.
1#
b01100100 $
#41
10
b01100100 4
b01100100 1
b01 )
#46
00
b11001000 $
#51
10
b11001000 /
b10 )
#56
00
0#
#61
10
#66
00
1'
#71
10
b01 -
b01 %
b01100100 "
b11001000 1
b01100100 *
b11001000 6
#76
00
#81
10
b10 -
b10 %
b11001000 "
b00000000 1
b11001000 *
b00000000 6
#86
00
0'
b00000000 $
