test_run_dir/MMU_double_buffer_should_perform_matrix_multiplication_with_background_loading_and_swapping/MMU_double_buffer.vcd
$date
2026-01-20T23:53+0000
$end
$version
0.2
$end
$comment

$end
$timescale 1ns  $end
$scope module MMU_double_buffer $end
 $var wire 1 " io_out_valid_0 $end
 $var wire 1 # PEs_1_1 $end
 $var wire 1 ) io_in_valid_0 $end
 $var wire 8 + io_in_act_1 $end
 $var wire 8 . io_in_weight_0 $end
 $var wire 1 ? PEs_1_0 $end
 $var wire 32 A io_in_psum_1 $end
 $var wire 1 B PEs_0_1 $end
 $var wire 8 K io_in_act_0 $end
 $var wire 1 U clock $end
 $var wire 1 Z io_en_weight_swap $end
 $var wire 1 ^ io_out_valid_1 $end
 $var wire 32 e io_out_psum_1 $end
 $var wire 1 h io_in_valid_1 $end
 $var wire 8 j io_in_weight_1 $end
 $var wire 32 l io_in_psum_0 $end
 $var wire 1 r PEs_0_0 $end
 $var wire 1 s io_en_weight_load $end
 $var wire 32 z io_out_psum_0 $end
 $var wire 1 { reset $end
  $scope module PEs_0_0 $end
   $var wire 1 $ io_valid_in $end
   $var wire 1 ( io_valid_out $end
   $var wire 1 3 clock $end
   $var wire 32 4 psum_out_reg $end
   $var wire 32 5 psum_in_reg $end
   $var wire 32 < mac_result $end
   $var wire 1 > valid_out_reg $end
   $var wire 8 D io_in_act $end
   $var wire 1 F reset $end
   $var wire 8 I weight_active $end
   $var wire 1 M io_en_weight_swap $end
   $var wire 32 R io_out_psum $end
   $var wire 8 k io_out_weight $end
   $var wire 1 p io_en_weight_load $end
   $var wire 32 t io_in_psum $end
   $var wire 8 x io_in_weight $end
   $var wire 8 y act_reg $end
   $var wire 8 } io_out_act $end
   $var wire 1 ~ valid_out_reg_REG $end
   $var wire 8 "! weight_shadow $end
  $upscope $end
  $scope module PEs_0_1 $end
   $var wire 1 % valid_out_reg $end
   $var wire 8 , weight_active $end
   $var wire 32 - psum_in_reg $end
   $var wire 1 0 io_en_weight_swap $end
   $var wire 1 9 reset $end
   $var wire 8 ; io_out_weight $end
   $var wire 32 C io_in_psum $end
   $var wire 8 E io_out_act $end
   $var wire 32 N io_out_psum $end
   $var wire 8 O act_reg $end
   $var wire 1 S valid_out_reg_REG $end
   $var wire 8 X io_in_act $end
   $var wire 1 Y io_en_weight_load $end
   $var wire 8 ` io_in_weight $end
   $var wire 1 n clock $end
   $var wire 8 q weight_shadow $end
   $var wire 1 | io_valid_out $end
   $var wire 1 "" io_valid_in $end
   $var wire 32 "# psum_out_reg $end
   $var wire 32 "& mac_result $end
  $upscope $end
  $scope module PEs_1_0 $end
   $var wire 1 ! valid_out_reg_REG $end
   $var wire 8 & weight_shadow $end
   $var wire 32 ' mac_result $end
   $var wire 1 2 reset $end
   $var wire 32 6 io_out_psum $end
   $var wire 8 = io_in_act $end
   $var wire 1 H valid_out_reg $end
   $var wire 8 P weight_active $end
   $var wire 8 Q io_in_weight $end
   $var wire 1 T io_en_weight_swap $end
   $var wire 1 ] clock $end
   $var wire 32 _ io_in_psum $end
   $var wire 1 a io_valid_in $end
   $var wire 8 b io_out_weight $end
   $var wire 8 f io_out_act $end
   $var wire 32 m psum_in_reg $end
   $var wire 32 u psum_out_reg $end
   $var wire 1 v io_en_weight_load $end
   $var wire 1 "$ io_valid_out $end
   $var wire 8 "% act_reg $end
  $upscope $end
  $scope module PEs_1_1 $end
   $var wire 1 * valid_out_reg $end
   $var wire 32 / io_out_psum $end
   $var wire 8 1 weight_active $end
   $var wire 32 7 io_in_psum $end
   $var wire 8 8 io_out_act $end
   $var wire 8 : io_in_weight $end
   $var wire 1 @ io_en_weight_swap $end
   $var wire 8 G io_out_weight $end
   $var wire 1 J clock $end
   $var wire 8 L io_in_act $end
   $var wire 1 V io_valid_in $end
   $var wire 1 W io_valid_out $end
   $var wire 8 [ act_reg $end
   $var wire 32 \ psum_out_reg $end
   $var wire 1 c io_en_weight_load $end
   $var wire 8 d weight_shadow $end
   $var wire 32 g psum_in_reg $end
   $var wire 32 i mac_result $end
   $var wire 1 o reset $end
   $var wire 1 w valid_out_reg_REG $end
  $upscope $end
$upscope $end
$enddefinitions $end
$dumpvars
0""
b00000000000000000000000000000000 <
b00000000 b
b00000000000000000000000000000000 '
b00000000 E
0o
0Z
b00000000 y
b00000000 d
b00000000 G
b00000000000000000000000000000000 "#
0T
0"
b00000000 I
b00000000 ,
b00000000000000000000000000000000 l
0V
09
b00000000 `
b00000000 X
b00000000 &
b00000000000000000000000000000000 4
03
b00000000 =
0|
0J
b00000000000000000000000000000000 6
b00000000 q
0~
0a
b00000000 k
0c
b00000000000000000000000000000000 \
0F
0)
b00000000 P
b00000000 ;
0r
0]
0H
b00000000000000000000000000000000 A
0@
b00000000000000000000000000000000 u
b00000000000000000000000000000000 "&
b00000000000000000000000000000000 C
0B
0W
0%
b00000000 L
0v
0n
0Y
b00000000 x
b00000000 1
0p
0S
0>
b00000000000000000000000000000000 7
0!
b00000000 +
0U
0M
b00000000000000000000000000000000 N
0#
b00000000 "%
b00000000000000000000000000000000 m
b00000000000000000000000000000000 e
02
b00000000 D
0{
b00000000000000000000000000000000 g
b00000000000000000000000000000000 R
b00000000000000000000000000000000 5
b00000000 [
b00000000 "!
0h
b00000000000000000000000000000000 i
b00000000 j
b00000000000000000000000000000000 /
b00000000 8
0w
00
0"$
0(
b00000000 O
b00000000 :
b00000000000000000000000000000000 z
0?
b00000000 f
b00000000 Q
0*
0s
0^
b00000000000000000000000000000000 t
b00000000000000000000000000000000 _
b00000000 }
b00000000000000000000000000000000 -
0$
b00000000 K
b00000000 .
$end
#0
1F
12
1o
19
1{
#1
13
1U
1J
1]
1n
#6
03
0F
0U
0J
02
0o
0]
0{
09
0n
#11
13
1U
1J
1]
1n
#16
03
1c
0U
1v
1s
b00000011 .
0J
1Y
0]
b00000011 x
1p
0n
#21
13
b00000011 Q
1U
b00000011 "!
1J
b00000011 k
1]
1n
#26
03
b00000100 `
0U
b00000001 .
0J
0]
b00000001 x
b00000100 j
0n
#31
b00000100 ;
13
b00000001 Q
1U
b00000001 "!
1J
b00000011 &
b00000001 k
1]
b00000100 :
b00000011 b
b00000100 q
1n
#36
03
b00000010 `
0U
b00000000 .
0J
0]
b00000000 x
b00000010 j
0n
#41
13
b00000000 Q
1J
b00000001 &
b00000001 b
b00000010 q
1U
b00000100 d
b00000000 "!
b00000100 G
b00000000 k
1]
b00000010 :
b00000010 ;
1n
#46
03
b00000000 `
0v
0J
0Y
1Z
0p
b00000000 j
1M
1T
0c
10
0U
1@
0s
0]
0n
#51
13
1U
b00000100 1
1J
1]
b00000001 P
b00000010 ,
1n
#56
03
1v
b00011110 .
0J
1Y
b00000010 D
b00000010 K
0Z
b00011110 x
1p
0M
0T
00
1c
0U
0@
1s
0]
0n
#61
13
b00011110 Q
b00000010 X
1J
b00000000 &
b00000010 }
b00000000 b
b00000000 q
1U
b00000010 d
b00000010 y
b00011110 "!
b00000010 G
b00011110 k
1]
b00000000 :
b00000000 ;
1n
#66
03
b00101000 `
0U
b00001010 .
0J
0]
b00001010 x
b00000010 +
b00000010 =
b00101000 j
0n
#71
13
b00000010 f
b00001010 Q
1J
b00011110 &
b00000010 "%
b00000000000000000000000000000010 '
b00000010 E
b00000000000000000000000000000100 "&
b00000010 L
b00011110 b
b00101000 q
1U
b00000000 d
b00001010 "!
b00000000 G
b00001010 k
1]
b00000010 O
b00101000 :
b00101000 ;
1n
#76
03
b00010100 `
0U
b00000000 .
0J
b00000000 D
0]
b00000000 K
b00000000 x
b00010100 j
0n
#81
13
b00000000000000000000000000000010 u
b00000000 Q
b00000000 X
1J
b00001010 &
b00000000 }
b00000000000000000000000000000010 6
b00000000000000000000000000001000 i
b00000010 [
b00000000000000000000000000000100 7
b00001010 b
b00010100 q
b00000000000000000000000000000100 N
1U
b00101000 d
b00000000 y
b00000000 "!
b00000010 8
b00101000 G
b00000000000000000000000000000010 z
b00000000 k
1]
b00000000000000000000000000000100 "#
b00010100 :
b00010100 ;
1n
#86
03
b00000000 `
0v
0J
0Y
b00000000 =
0p
b00000000 j
0c
0U
0s
0]
b00000000 +
0n
#91
13
b00000000 f
b00000000000000000000000000000100 g
1J
b00000000 "%
b00000000000000000000000000000000 '
b00000000000000000000000000001100 i
b00000000 E
b00000000000000000000000000000000 "&
b00000000 L
b00000000000000000000000000001000 /
b00000000000000000000000000001000 \
1U
b00000000000000000000000000001000 e
1]
b00000000 O
1n
#96
03
1T
10
0U
1@
0J
0]
1Z
1M
0n
#101
13
b00000000000000000000000000000000 u
1J
b00000000000000000000000000000000 6
b00000000000000000000000000000100 i
b00000000 [
b00000000000000000000000000000000 7
b00000000000000000000000000001100 /
b00000000000000000000000000001100 \
b00000000000000000000000000000000 N
1U
b00101000 1
b00000000 8
b00000000000000000000000000000000 z
b00000000000000000000000000001100 e
1]
b00000000000000000000000000000000 "#
b00001010 P
b00010100 ,
1n
#106
03
0T
00
0U
0@
0J
b00000001 D
0]
0Z
b00000001 K
0M
0n
#111
1n
13
b00000001 X
1U
b00000000000000000000000000000000 g
b00000001 y
1J
b00000001 }
b00000000000000000000000000000100 e
1]
b00000000000000000000000000000000 i
b00000000000000000000000000000100 /
b00000000000000000000000000000100 \
#116
03
0U
0J
0]
b00000001 +
b00000001 =
0n
#121
13
b00000001 f
1J
b00000001 "%
b00000000000000000000000000001010 '
b00000001 E
b00000000000000000000000000010100 "&
b00000001 L
b00000000000000000000000000000000 /
b00000000000000000000000000000000 \
1U
b00000000000000000000000000000000 e
1]
b00000001 O
1n
#126
03
0U
0J
b00000000 D
0]
b00000000 K
0n
#131
13
b00000000000000000000000000001010 u
b00000000 X
1J
b00000000 }
b00000000000000000000000000001010 6
b00000000000000000000000000101000 i
b00000001 [
b00000000000000000000000000010100 7
b00000000000000000000000000010100 N
1U
b00000000 y
b00000001 8
b00000000000000000000000000001010 z
1]
b00000000000000000000000000010100 "#
1n
#136
03
0U
0J
0]
b00000000 +
b00000000 =
0n
#141
13
b00000000 f
b00000000000000000000000000010100 g
1J
b00000000 "%
b00000000000000000000000000000000 '
b00000000000000000000000000111100 i
b00000000 E
b00000000000000000000000000000000 "&
b00000000 L
b00000000000000000000000000101000 /
b00000000000000000000000000101000 \
1U
b00000000000000000000000000101000 e
1]
b00000000 O
1n
#146
03
0U
0J
0]
0n
#151
13
b00000000000000000000000000000000 u
1J
b00000000000000000000000000000000 6
b00000000000000000000000000010100 i
b00000000 [
b00000000000000000000000000000000 7
b00000000000000000000000000111100 /
b00000000000000000000000000111100 \
b00000000000000000000000000000000 N
1U
b00000000 8
b00000000000000000000000000000000 z
b00000000000000000000000000111100 e
1]
b00000000000000000000000000000000 "#
1n
#156
03
0U
0J
0]
0n
#161
1n
13
1U
b00000000000000000000000000000000 g
1J
b00000000000000000000000000010100 e
1]
b00000000000000000000000000000000 i
b00000000000000000000000000010100 /
b00000000000000000000000000010100 \
#166
03
0U
0J
0]
0n
#171
1n
13
1U
1J
b00000000000000000000000000000000 e
1]
b00000000000000000000000000000000 /
b00000000000000000000000000000000 \
