test_run_dir/Accumulator_Memory_Double_Buffered_should_perform_overwrite_accumulate_and_bank_switching_correctly/AccumulatorMem.vcd
$date
2026-01-06T22:59+0000
$end
$version
0.2
$end
$comment

$end
$timescale 1ns  $end
$scope module AccumulatorMem $end
 $var wire 32 ! new_val1 $end
 $var wire 32 " out_col0_reg $end
 $var wire 17 # in1_s32 $end
 $var wire 32 $ mem_buff1_col0 $end
 $var wire 32 % new_val0 $end
 $var wire 1 & io_enable $end
 $var wire 32 ' io_out_col0 $end
 $var wire 16 ( io_in_col1 $end
 $var wire 1 ) valid_out_reg $end
 $var wire 32 * out_col1_reg $end
 $var wire 32 + new_val1_1 $end
 $var wire 32 , mem_buff0_col1 $end
 $var wire 1 - io_accumulator_mode $end
 $var wire 1 . clock $end
 $var wire 1 / io_buffer_select $end
 $var wire 16 0 io_in_col0 $end
 $var wire 1 1 io_valid_out $end
 $var wire 32 2 mem_buff1_col1 $end
 $var wire 1 3 reset $end
 $var wire 32 4 new_val0_1 $end
 $var wire 32 5 io_out_col1 $end
 $var wire 32 6 mem_buff0_col0 $end
 $var wire 17 7 in0_s32 $end
$upscope $end
$enddefinitions $end
$dumpvars
b00000000000000000000000000000000 5
b00000000000000000 #
0&
b00000000000000000000000000000000 '
b00000000000000000000000000000000 6
0-
0.
b00000000000000000000000000000000 !
0/
b00000000000000000000000000000000 "
01
0)
b0000000000000000 (
b00000000000000000000000000000000 *
b00000000000000000000000000000000 +
b00000000000000000000000000000000 2
b0000000000000000 0
b00000000000000000000000000000000 ,
b00000000000000000000000000000000 $
b00000000000000000000000000000000 %
03
b00000000000000000000000000000000 4
b00000000000000000 7
$end
#0
13
#1
1.
#6
03
0.
#11
1.
#16
b00000000000000000000000011001000 !
b0000000001100100 0
b00000000000000000000000001100100 %
b00000000000000000000000001100100 4
0.
1&
b00000000011001000 #
b00000000000000000000000011001000 +
b0000000011001000 (
b00000000001100100 7
#21
b00000000000000000000000001100100 "
11
1.
b00000000000000000000000011001000 5
b00000000000000000000000011001000 *
b00000000000000000000000001100100 '
b00000000000000000000000001100100 6
b00000000000000000000000011001000 ,
1)
#26
b00000000000000000000000011011100 !
b0000000000001010 0
1-
b00000000000000000000000001101110 %
b00000000000000000000000000001010 4
0.
b00000000000010100 #
b00000000000000000000000000010100 +
b0000000000010100 (
b00000000000001010 7
#31
b00000000000000000000000011110000 !
b00000000000000000000000001111000 %
b00000000000000000000000001101110 "
1.
b00000000000000000000000011011100 5
b00000000000000000000000011011100 *
b00000000000000000000000001101110 '
b00000000000000000000000001101110 6
b00000000000000000000000011011100 ,
#36
b00000000000000000000001001011000 !
b0000000111110100 0
0-
b00000000000000000000000111110100 %
b00000000000000000000000111110100 4
0.
b00000001001011000 #
b00000000000000000000001001011000 +
b0000001001011000 (
b00000000111110100 7
1/
#41
b00000000000000000000000111110100 "
1.
b00000000000000000000001001011000 5
b00000000000000000000001001011000 2
b00000000000000000000001001011000 *
b00000000000000000000000111110100 '
b00000000000000000000000111110100 $
#46
b00000000000000000000000011011101 !
b0000000000000001 0
1-
b00000000000000000000000001101111 %
b00000000000000000000000111110101 4
0.
b00000000000000001 #
b00000000000000000000001001011001 +
b0000000000000001 (
b00000000000000001 7
#51
b00000000000000000000000111110101 "
b00000000000000000000000111110110 4
1.
b00000000000000000000001001011001 5
b00000000000000000000001001011001 2
b00000000000000000000001001011001 *
b00000000000000000000000111110101 '
b00000000000000000000000111110101 $
b00000000000000000000001001011010 +
#56
b00000000000000000000000011011100 !
b0000000000000000 0
b00000000000000000000000001101110 %
b00000000000000000000000111110101 4
0.
b00000000000000000 #
b00000000000000000000001001011001 +
b0000000000000000 (
b00000000000000000 7
0/
#61
b00000000000000000000000001101110 "
1.
b00000000000000000000000011011100 5
b00000000000000000000000011011100 *
b00000000000000000000000001101110 '
#66
0.
0&
#71
01
1.
0)
#76
0-
0.
