test_run_dir/Activation_Pipeline_should_clip_negative_values_in_ReLU_mode_Mode_1/ActivationPipeline.vcd
$date
2026-01-15T01:22+0000
$end
$version
0.2
$end
$comment

$end
$timescale 1ns  $end
$scope module ActivationPipeline $end
 $var wire 8 ! io_q_zero_point $end
 $var wire 32 " io_norm_bias $end
 $var wire 2 # io_activation_mode $end
 $var wire 40 $ biased $end
 $var wire 1 & io_loss_valid $end
 $var wire 5 ' io_norm_shift $end
 $var wire 16 , io_q_inv_scale $end
 $var wire 48 ; mult_rounded $end
 $var wire 1 < u_loss $end
 $var wire 8 > saturated $end
 $var wire 1 @ clock $end
 $var wire 48 B mult $end
 $var wire 1 D u_act $end
 $var wire 1 E valid_reg $end
 $var wire 32 G io_acc_in $end
 $var wire 32 H target_d1 $end
 $var wire 1 J io_valid_out $end
 $var wire 32 K io_target_in $end
 $var wire 32 L io_loss_out $end
 $var wire 8 P io_ub_data_out $end
 $var wire 40 Q scaled $end
 $var wire 1 S u_norm $end
 $var wire 1 T reset $end
 $var wire 8 U ub_q_reg $end
 $var wire 1 V io_valid_in $end
 $var wire 16 X io_norm_gain $end
  $scope module u_loss $end
   $var wire 32 % abs_diff $end
   $var wire 32 0 diff $end
   $var wire 32 9 io_data_in $end
   $var wire 1 A reset $end
   $var wire 32 C io_loss_out $end
   $var wire 1 I io_valid_in $end
   $var wire 32 R io_target_in $end
   $var wire 1 W io_valid_out $end
  $upscope $end
  $scope module u_norm $end
   $var wire 16 ( io_gain $end
   $var wire 32 * io_bias $end
   $var wire 1 + io_valid_in $end
   $var wire 1 . reset $end
   $var wire 48 2 shifted $end
   $var wire 48 4 mult $end
   $var wire 1 5 io_valid_out $end
   $var wire 32 6 io_data_in $end
   $var wire 32 : data_reg $end
   $var wire 1 = valid_reg $end
   $var wire 32 ? io_data_out $end
   $var wire 5 F io_shift $end
   $var wire 1 M clock $end
  $upscope $end
  $scope module u_act $end
   $var wire 2 ) io_mode $end
   $var wire 32 - io_data_in $end
   $var wire 1 / valid_reg $end
   $var wire 32 1 processed_data $end
   $var wire 32 3 io_data_out $end
   $var wire 32 7 data_reg $end
   $var wire 1 8 clock $end
   $var wire 1 N io_valid_out $end
   $var wire 32 O relu $end
   $var wire 1 Y io_valid_in $end
   $var wire 1 Z reset $end
  $upscope $end
$upscope $end
$enddefinitions $end
$dumpvars
0&
0Z
b0000000000000000000000000000000000000000 Q
0=
b00 )
0T
b00 #
0V
0N
b00000000000000000000000000000000 O
b00000000000000000000000000000000 :
b00000 F
b000000000000000000000000000000000000000000000000 ;
b00000000000000000000000000000000 K
b00000000000000000000000000000000 6
0J
05
0D
b00000000000000000000000000000000 0
0/
b00000 '
b00000000000000000000000000000000 G
b00000000000000000000000000000000 *
b00000000 P
0@
0+
0W
b00000000000000000000000000000000 C
b0000000000000000000000000000000000000000 $
0Y
0<
b0000000000000000 ,
b0000000000000000 X
0S
b00000000000000000000000000000000 ?
b00000000000000000000000000000000 7
b00000000000000000000000000000000 "
0M
b0000000000000000 (
b00000000000000000000000000000000 9
08
b000000000000000000000000000000000000000000000000 B
b00000000000000000000000000000000 3
b00000000000000000000000000000000 R
0I
b00000000 >
b00000000 !
b00000000000000000000000000000000 L
0.
b00000000 U
0E
b00000000000000000000000000000000 1
b00000000000000000000000000000000 H
b000000000000000000000000000000000000000000000000 2
0A
b000000000000000000000000000000000000000000000000 4
b00000000000000000000000000000000 -
b00000000000000000000000000000000 %
$end
#0
1T
1.
1Z
1A
b000000000000000000000000000000000000000010000000 ;
#1
1@
18
1M
#6
0T
b0000000100000000 X
b01000 F
0@
0.
08
b01000 '
0Z
b0000000100000000 (
0A
b0000000100000000 ,
0M
#11
1@
18
1M
#16
b11111111111111111111111111001110 -
0@
08
b01 #
1V
1Y
b11111111111111111111111111001110 G
0M
b01 )
#21
1N
1@
18
1+
1/
1M
#26
0@
08
0Y
0V
0M
#31
0N
1@
1&
15
18
1W
1=
0+
1I
0/
1M
#36
0@
08
0M
#41
1@
1J
05
0&
18
1E
0W
0=
0I
1M
#46
b0000000000000000 X
0@
08
b00000000000000000000000000000000 G
b00 #
b00000 '
b0000000000000000 ,
0M
